   1        0.5000000      0.0000000      0.5000000     2.00000         -9.96517     2.00000         -9.96517     0.00000         22.88720     0.00000         22.88720     0.00000         24.80394
   2        0.4938270      0.0123456      0.5000000     2.00000         -9.96498     2.00000         -9.96498     0.00000         22.89127     0.00000         22.89127     0.00000         24.80756
   3        0.4876541      0.0246911      0.5000000     2.00000         -9.96441     2.00000         -9.96441     0.00000         22.90350     0.00000         22.90350     0.00000         24.81843
   4        0.4814811      0.0370367      0.5000000     2.00000         -9.96347     2.00000         -9.96347     0.00000         22.92393     0.00000         22.92393     0.00000         24.83659
   5        0.4753081      0.0493822      0.5000000     2.00000         -9.96216     2.00000         -9.96216     0.00000         22.95264     0.00000         22.95264     0.00000         24.86213
   6        0.4691352      0.0617278      0.5000000     2.00000         -9.96051     2.00000         -9.96051     0.00000         22.98970     0.00000         22.98970     0.00000         24.89512
   7        0.4629622      0.0740733      0.5000000     2.00000         -9.95852     2.00000         -9.95852     0.00000         23.03523     0.00000         23.03523     0.00000         24.93570
   8        0.4567893      0.0864189      0.5000000     2.00000         -9.95622     2.00000         -9.95622     0.00000         23.08934     0.00000         23.08934     0.00000         24.98399
   9        0.4506163      0.0987644      0.5000000     2.00000         -9.95363     2.00000         -9.95363     0.00000         23.15213     0.00000         23.15213     0.00000         25.04016
  10        0.4444433      0.1111100      0.5000000     2.00000         -9.95078     2.00000         -9.95078     0.00000         23.22370     0.00000         23.22370     0.00000         25.10436
  11        0.4382704      0.1234556      0.5000000     2.00000         -9.94769     2.00000         -9.94769     0.00000         23.30410     0.00000         23.30410     0.00000         25.17676
  12        0.4320974      0.1358011      0.5000000     2.00000         -9.94441     2.00000         -9.94441     0.00000         23.39335     0.00000         23.39335     0.00000         25.25754
  13        0.4259244      0.1481467      0.5000000     2.00000         -9.94097     2.00000         -9.94097     0.00000         23.49137     0.00000         23.49137     0.00000         25.34685
  14        0.4197515      0.1604922      0.5000000     2.00000         -9.93741     2.00000         -9.93741     0.00000         23.59802     0.00000         23.59802     0.00000         25.44482
  15        0.4135785      0.1728378      0.5000000     2.00000         -9.93376     2.00000         -9.93376     0.00000         23.71300     0.00000         23.71300     0.00000         25.55154
  16        0.4074056      0.1851833      0.5000000     2.00000         -9.93008     2.00000         -9.93008     0.00000         23.83589     0.00000         23.83589     0.00000         25.66704
  17        0.4012326      0.1975289      0.5000000     2.00000         -9.92641     2.00000         -9.92641     0.00000         23.96610     0.00000         23.96610     0.00000         25.79122
  18        0.3950596      0.2098744      0.5000000     2.00000         -9.92279     2.00000         -9.92279     0.00000         24.10283     0.00000         24.10283     0.00000         25.92380
  19        0.3888867      0.2222200      0.5000000     2.00000         -9.91928     2.00000         -9.91928     0.00000         24.24505     0.00000         24.24505     0.00000         26.06422
  20        0.3827137      0.2345656      0.5000000     2.00000         -9.91593     2.00000         -9.91593     0.00000         24.39146     0.00000         24.39146     0.00000         26.21147
  21        0.3765407      0.2469111      0.5000000     2.00000         -9.91278     2.00000         -9.91278     0.00000         24.54044     0.00000         24.54044     0.00000         26.36390
  22        0.3703678      0.2592567      0.5000000     2.00000         -9.90989     2.00000         -9.90989     0.00000         24.68993     0.00000         24.68993     0.00000         26.51881
  23        0.3641948      0.2716022      0.5000000     2.00000         -9.90731     2.00000         -9.90731     0.00000         24.83729     0.00000         24.83729     0.00000         26.67202
  24        0.3580218      0.2839478      0.5000000     2.00000         -9.90509     2.00000         -9.90509     0.00000         24.97895     0.00000         24.97895     0.00000         26.81714
  25        0.3518489      0.2962933      0.5000000     2.00000         -9.90327     2.00000         -9.90327     0.00000         25.10981     0.00000         25.10981     0.00000         26.94493
  26        0.3456759      0.3086389      0.5000000     2.00000         -9.90192     2.00000         -9.90192     0.00000         25.22215     0.00000         25.22215     0.00000         27.04352
  27        0.3395030      0.3209845      0.5000000     2.00000         -9.90108     2.00000         -9.90108     0.00000         25.30387     0.00000         25.30387     0.00000         27.10180
  28        0.3333300      0.3333300      0.5000000     2.00000         -9.90079     2.00000         -9.90079     0.00000         25.33644     0.00000         25.33644     0.00000         27.11843
