   1        0.3333300      0.3333300      0.5000000     2.00000         -9.90079     2.00000         -9.90079     0.00000         25.33644     0.00000         25.33644     0.00000         27.11843
   2        0.3272695      0.3272695      0.5000000     2.00000         -9.90108     2.00000         -9.90108     0.00000         25.29644     0.00000         25.29644     0.00000         27.11138
   3        0.3212089      0.3212089      0.5000000     2.00000         -9.90199     2.00000         -9.90199     0.00000         25.16251     0.00000         25.16251     0.00000         27.11149
   4        0.3151484      0.3151484      0.5000000     2.00000         -9.90355     2.00000         -9.90355     0.00000         24.92601     0.00000         24.92601     0.00000         27.14257
   5        0.3090878      0.3090878      0.5000000     2.00000         -9.90579     2.00000         -9.90579     0.00000         24.59674     0.00000         24.59674     0.00000         27.21046
   6        0.3030273      0.3030273      0.5000000     2.00000         -9.90874     2.00000         -9.90874     0.00000         24.19390     0.00000         24.19390     0.00000         27.30897
   7        0.2969667      0.2969667      0.5000000     2.00000         -9.91242     2.00000         -9.91242     0.00000         23.73659     0.00000         23.73659     0.00000         27.42932
   8        0.2909062      0.2909062      0.5000000     2.00000         -9.91687     2.00000         -9.91687     0.00000         23.24024     0.00000         23.24024     0.00000         27.56436
   9        0.2848456      0.2848456      0.5000000     2.00000         -9.92209     2.00000         -9.92209     0.00000         22.71679     0.00000         22.71679     0.00000         27.70904
  10        0.2787851      0.2787851      0.5000000     2.00000         -9.92809     2.00000         -9.92809     0.00000         22.17561     0.00000         22.17561     0.00000         27.85989
  11        0.2727245      0.2727245      0.5000000     2.00000         -9.93489     2.00000         -9.93489     0.00000         21.62428     0.00000         21.62428     0.00000         28.01455
  12        0.2666640      0.2666640      0.5000000     2.00000         -9.94249     2.00000         -9.94249     0.00000         21.06909     0.00000         21.06909     0.00000         28.17129
  13        0.2606035      0.2606035      0.5000000     2.00000         -9.95088     2.00000         -9.95088     0.00000         20.51538     0.00000         20.51538     0.00000         28.32884
  14        0.2545429      0.2545429      0.5000000     2.00000         -9.96007     2.00000         -9.96007     0.00000         19.96763     0.00000         19.96763     0.00000         28.48616
  15        0.2484824      0.2484824      0.5000000     2.00000         -9.97003     2.00000         -9.97003     0.00000         19.42968     0.00000         19.42968     0.00000         28.64242
  16        0.2424218      0.2424218      0.5000000     2.00000         -9.98075     2.00000         -9.98075     0.00000         18.90468     0.00000         18.90468     0.00000         28.79687
  17        0.2363613      0.2363613      0.5000000     2.00000         -9.99221     2.00000         -9.99221     0.00000         18.39526     0.00000         18.39526     0.00000         28.94884
  18        0.2303007      0.2303007      0.5000000     2.00000        -10.00438     2.00000        -10.00438     0.00000         17.90346     0.00000         17.90346     0.00000         29.09768
  19        0.2242402      0.2242402      0.5000000     2.00000        -10.01723     2.00000        -10.01723     0.00000         17.43089     0.00000         17.43089     0.00000         29.24277
  20        0.2181796      0.2181796      0.5000000     2.00000        -10.03073     2.00000        -10.03073     0.00000         16.97869     0.00000         16.97869     0.00000         29.38349
  21        0.2121191      0.2121191      0.5000000     2.00000        -10.04483     2.00000        -10.04483     0.00000         16.54761     0.00000         16.54761     0.00000         29.51923
  22        0.2060585      0.2060585      0.5000000     2.00000        -10.05949     2.00000        -10.05949     0.00000         16.13809     0.00000         16.13809     0.00000         29.64938
  23        0.1999980      0.1999980      0.5000000     2.00000        -10.07467     2.00000        -10.07467     0.00000         15.75024     0.00000         15.75024     0.00000         29.77337
  24        0.1939375      0.1939375      0.5000000     2.00000        -10.09031     2.00000        -10.09031     0.00000         15.38396     0.00000         15.38396     0.00000         29.89069
  25        0.1878769      0.1878769      0.5000000     2.00000        -10.10636     2.00000        -10.10636     0.00000         15.03893     0.00000         15.03893     0.00000         30.00095
  26        0.1818164      0.1818164      0.5000000     2.00000        -10.12275     2.00000        -10.12275     0.00000         14.71466     0.00000         14.71466     0.00000         30.10397
  27        0.1757558      0.1757558      0.5000000     2.00000        -10.13944     2.00000        -10.13944     0.00000         14.41057     0.00000         14.41057     0.00000         30.19978
  28        0.1696953      0.1696953      0.5000000     2.00000        -10.15636     2.00000        -10.15636     0.00000         14.12595     0.00000         14.12595     0.00000         30.28875
  29        0.1636347      0.1636347      0.5000000     2.00000        -10.17345     2.00000        -10.17345     0.00000         13.86003     0.00000         13.86003     0.00000         30.37151
  30        0.1575742      0.1575742      0.5000000     2.00000        -10.19064     2.00000        -10.19064     0.00000         13.61201     0.00000         13.61201     0.00000         30.44895
  31        0.1515136      0.1515136      0.5000000     2.00000        -10.20787     2.00000        -10.20787     0.00000         13.38104     0.00000         13.38104     0.00000         30.52211
  32        0.1454531      0.1454531      0.5000000     2.00000        -10.22507     2.00000        -10.22507     0.00000         13.16628     0.00000         13.16628     0.00000         30.59212
  33        0.1393926      0.1393926      0.5000000     2.00000        -10.24218     2.00000        -10.24218     0.00000         12.96690     0.00000         12.96690     0.00000         30.66005
  34        0.1333320      0.1333320      0.5000000     2.00000        -10.25913     2.00000        -10.25913     0.00000         12.78206     0.00000         12.78206     0.00000         30.72689
  35        0.1272715      0.1272715      0.5000000     2.00000        -10.27585     2.00000        -10.27585     0.00000         12.61096     0.00000         12.61096     0.00000         30.79352
  36        0.1212109      0.1212109      0.5000000     2.00000        -10.29228     2.00000        -10.29228     0.00000         12.45282     0.00000         12.45282     0.00000         30.86066
  37        0.1151504      0.1151504      0.5000000     2.00000        -10.30836     2.00000        -10.30836     0.00000         12.30691     0.00000         12.30691     0.00000         30.92892
  38        0.1090898      0.1090898      0.5000000     2.00000        -10.32403     2.00000        -10.32403     0.00000         12.17251     0.00000         12.17251     0.00000         30.99875
  39        0.1030293      0.1030293      0.5000000     2.00000        -10.33922     2.00000        -10.33922     0.00000         12.04896     0.00000         12.04896     0.00000         31.07052
  40        0.0969687      0.0969687      0.5000000     2.00000        -10.35388     2.00000        -10.35388     0.00000         11.93564     0.00000         11.93564     0.00000         31.14448
  41        0.0909082      0.0909082      0.5000000     2.00000        -10.36795     2.00000        -10.36795     0.00000         11.83196     0.00000         11.83196     0.00000         31.22081
  42        0.0848476      0.0848476      0.5000000     2.00000        -10.38138     2.00000        -10.38138     0.00000         11.73738     0.00000         11.73738     0.00000         31.29960
  43        0.0787871      0.0787871      0.5000000     2.00000        -10.39411     2.00000        -10.39411     0.00000         11.65140     0.00000         11.65140     0.00000         31.38090
  44        0.0727265      0.0727265      0.5000000     2.00000        -10.40610     2.00000        -10.40610     0.00000         11.57355     0.00000         11.57355     0.00000         31.46469
  45        0.0666660      0.0666660      0.5000000     2.00000        -10.41731     2.00000        -10.41731     0.00000         11.50341     0.00000         11.50341     0.00000         31.55090
  46        0.0606055      0.0606055      0.5000000     2.00000        -10.42768     2.00000        -10.42768     0.00000         11.44060     0.00000         11.44060     0.00000         31.63943
  47        0.0545449      0.0545449      0.5000000     2.00000        -10.43719     2.00000        -10.43719     0.00000         11.38478     0.00000         11.38478     0.00000         31.73015
  48        0.0484844      0.0484844      0.5000000     2.00000        -10.44580     2.00000        -10.44580     0.00000         11.33564     0.00000         11.33564     0.00000         31.82287
  49        0.0424238      0.0424238      0.5000000     2.00000        -10.45347     2.00000        -10.45347     0.00000         11.29291     0.00000         11.29291     0.00000         31.91739
  50        0.0363633      0.0363633      0.5000000     2.00000        -10.46017     2.00000        -10.46017     0.00000         11.25634     0.00000         11.25634     0.00000         32.01348
  51        0.0303027      0.0303027      0.5000000     2.00000        -10.46589     2.00000        -10.46589     0.00000         11.22574     0.00000         11.22574     0.00000         32.11086
  52        0.0242422      0.0242422      0.5000000     2.00000        -10.47059     2.00000        -10.47059     0.00000         11.20093     0.00000         11.20093     0.00000         32.20918
  53        0.0181816      0.0181816      0.5000000     2.00000        -10.47427     2.00000        -10.47427     0.00000         11.18178     0.00000         11.18178     0.00000         32.30797
  54        0.0121211      0.0121211      0.5000000     2.00000        -10.47691     2.00000        -10.47691     0.00000         11.16817     0.00000         11.16817     0.00000         32.40633
  55        0.0060605      0.0060605      0.5000000     2.00000        -10.47849     2.00000        -10.47849     0.00000         11.16004     0.00000         11.16004     0.00000         32.50114
  56        0.0000000      0.0000000      0.5000000     2.00000        -10.47902     2.00000        -10.47902     0.00000         11.15734     0.00000         11.15734     0.00000         32.56256
